{
  "project_info": {
    "project_number": "971812049692",
    "firebase_url": "https://learn-together-162709.firebaseio.com",
    "project_id": "learn-together-162709",
    "storage_bucket": "learn-together-162709.appspot.com"
  },
  "client": [
    {
      "client_info": {
        "mobilesdk_app_id": "1:971812049692:android:3d4015dd845878bb",
        "android_client_info": {
          "package_name": "fi.oulu.mobi.learntogether"
        }
      },
      "oauth_client": [
        {
          "client_id": "971812049692-dl809prgpainj1nf36ucgl82vcm4phc0.apps.googleusercontent.com",
          "client_type": 1,
          "android_info": {
            "package_name": "fi.oulu.mobi.learntogether",
            "certificate_hash": "4cf6595dd9928f78b57051bf4550f15c42c5a198"
          }
        },
        {
          "client_id": "971812049692-2e0n01r7tammidlfjhm1aanuu1gn3mv9.apps.googleusercontent.com",
          "client_type": 3
        }
      ],
      "api_key": [
        {
          "current_key": "AIzaSyD8TsZAdzJnriToJLsKiw64dg1mxJBVRE8"
        }
      ],
      "services": {
        "analytics_service": {
          "status": 1
        },
        "appinvite_service": {
          "status": 2,
          "other_platform_oauth_client": [
            {
              "client_id": "971812049692-2e0n01r7tammidlfjhm1aanuu1gn3mv9.apps.googleusercontent.com",
              "client_type": 3
            }
          ]
        },
        "ads_service": {
          "status": 2
        }
      }
    }
  ],
  "configuration_version": "1"
}